{
  "formatVersion": 1,
  "database": {
    "version": 5,
    "identityHash": "3483d0e4385e7995284c6c60852fccf5",
    "entities": [
      {
        "tableName": "User",
        "createSql": "CREATE TABLE IF NOT EXISTS `${TABLE_NAME}` (`userId` INTEGER PRIMARY KEY AUTOINCREMENT NOT NULL, `email` TEXT, `password` TEXT, `name` TEXT, `birthday` TEXT, `phone` TEXT)",
        "fields": [
          {
            "fieldPath": "userId",
            "columnName": "userId",
            "affinity": "INTEGER",
            "notNull": true
          },
          {
            "fieldPath": "email",
            "columnName": "email",
            "affinity": "TEXT",
            "notNull": false
          },
          {
            "fieldPath": "password",
            "columnName": "password",
            "affinity": "TEXT",
            "notNull": false
          },
          {
            "fieldPath": "name",
            "columnName": "name",
            "affinity": "TEXT",
            "notNull": false
          },
          {
            "fieldPath": "birthday",
            "columnName": "birthday",
            "affinity": "TEXT",
            "notNull": false
          },
          {
            "fieldPath": "phone",
            "columnName": "phone",
            "affinity": "TEXT",
            "notNull": false
          }
        ],
        "primaryKey": {
          "columnNames": [
            "userId"
          ],
          "autoGenerate": true
        },
        "indices": [],
        "foreignKeys": []
      },
      {
        "tableName": "Trainer",
        "createSql": "CREATE TABLE IF NOT EXISTS `${TABLE_NAME}` (`trainerId` INTEGER PRIMARY KEY AUTOINCREMENT NOT NULL, `email` TEXT, `password` TEXT, `name` TEXT, `birthday` TEXT, `phone` TEXT)",
        "fields": [
          {
            "fieldPath": "trainerId",
            "columnName": "trainerId",
            "affinity": "INTEGER",
            "notNull": true
          },
          {
            "fieldPath": "email",
            "columnName": "email",
            "affinity": "TEXT",
            "notNull": false
          },
          {
            "fieldPath": "password",
            "columnName": "password",
            "affinity": "TEXT",
            "notNull": false
          },
          {
            "fieldPath": "name",
            "columnName": "name",
            "affinity": "TEXT",
            "notNull": false
          },
          {
            "fieldPath": "birthday",
            "columnName": "birthday",
            "affinity": "TEXT",
            "notNull": false
          },
          {
            "fieldPath": "phone",
            "columnName": "phone",
            "affinity": "TEXT",
            "notNull": false
          }
        ],
        "primaryKey": {
          "columnNames": [
            "trainerId"
          ],
          "autoGenerate": true
        },
        "indices": [],
        "foreignKeys": []
      },
      {
        "tableName": "Event",
        "createSql": "CREATE TABLE IF NOT EXISTS `${TABLE_NAME}` (`eventId` INTEGER PRIMARY KEY AUTOINCREMENT NOT NULL, `date` INTEGER, `city` TEXT, `street` TEXT, `quantity` INTEGER NOT NULL, `title` TEXT, `description` TEXT, `price` REAL NOT NULL, `trainerCreatorId` INTEGER NOT NULL)",
        "fields": [
          {
            "fieldPath": "eventId",
            "columnName": "eventId",
            "affinity": "INTEGER",
            "notNull": true
          },
          {
            "fieldPath": "date",
            "columnName": "date",
            "affinity": "INTEGER",
            "notNull": false
          },
          {
            "fieldPath": "city",
            "columnName": "city",
            "affinity": "TEXT",
            "notNull": false
          },
          {
            "fieldPath": "street",
            "columnName": "street",
            "affinity": "TEXT",
            "notNull": false
          },
          {
            "fieldPath": "quantity",
            "columnName": "quantity",
            "affinity": "INTEGER",
            "notNull": true
          },
          {
            "fieldPath": "title",
            "columnName": "title",
            "affinity": "TEXT",
            "notNull": false
          },
          {
            "fieldPath": "description",
            "columnName": "description",
            "affinity": "TEXT",
            "notNull": false
          },
          {
            "fieldPath": "price",
            "columnName": "price",
            "affinity": "REAL",
            "notNull": true
          },
          {
            "fieldPath": "trainerCreatorId",
            "columnName": "trainerCreatorId",
            "affinity": "INTEGER",
            "notNull": true
          }
        ],
        "primaryKey": {
          "columnNames": [
            "eventId"
          ],
          "autoGenerate": true
        },
        "indices": [],
        "foreignKeys": []
      },
      {
        "tableName": "Review",
        "createSql": "CREATE TABLE IF NOT EXISTS `${TABLE_NAME}` (`reviewId` INTEGER PRIMARY KEY AUTOINCREMENT NOT NULL, `authorId` INTEGER NOT NULL, `content` TEXT, `rating` REAL, `trainerAboutId` INTEGER NOT NULL)",
        "fields": [
          {
            "fieldPath": "reviewId",
            "columnName": "reviewId",
            "affinity": "INTEGER",
            "notNull": true
          },
          {
            "fieldPath": "authorId",
            "columnName": "authorId",
            "affinity": "INTEGER",
            "notNull": true
          },
          {
            "fieldPath": "content",
            "columnName": "content",
            "affinity": "TEXT",
            "notNull": false
          },
          {
            "fieldPath": "rating",
            "columnName": "rating",
            "affinity": "REAL",
            "notNull": false
          },
          {
            "fieldPath": "trainerAboutId",
            "columnName": "trainerAboutId",
            "affinity": "INTEGER",
            "notNull": true
          }
        ],
        "primaryKey": {
          "columnNames": [
            "reviewId"
          ],
          "autoGenerate": true
        },
        "indices": [],
        "foreignKeys": []
      },
      {
        "tableName": "Type",
        "createSql": "CREATE TABLE IF NOT EXISTS `${TABLE_NAME}` (`typeId` INTEGER PRIMARY KEY AUTOINCREMENT NOT NULL, `name` TEXT)",
        "fields": [
          {
            "fieldPath": "typeId",
            "columnName": "typeId",
            "affinity": "INTEGER",
            "notNull": true
          },
          {
            "fieldPath": "name",
            "columnName": "name",
            "affinity": "TEXT",
            "notNull": false
          }
        ],
        "primaryKey": {
          "columnNames": [
            "typeId"
          ],
          "autoGenerate": true
        },
        "indices": [],
        "foreignKeys": []
      },
      {
        "tableName": "EventUser",
        "createSql": "CREATE TABLE IF NOT EXISTS `${TABLE_NAME}` (`eventId` INTEGER NOT NULL, `userId` INTEGER NOT NULL, PRIMARY KEY(`eventId`, `userId`))",
        "fields": [
          {
            "fieldPath": "eventId",
            "columnName": "eventId",
            "affinity": "INTEGER",
            "notNull": true
          },
          {
            "fieldPath": "userId",
            "columnName": "userId",
            "affinity": "INTEGER",
            "notNull": true
          }
        ],
        "primaryKey": {
          "columnNames": [
            "eventId",
            "userId"
          ],
          "autoGenerate": false
        },
        "indices": [],
        "foreignKeys": []
      },
      {
        "tableName": "EventType",
        "createSql": "CREATE TABLE IF NOT EXISTS `${TABLE_NAME}` (`eventId` INTEGER NOT NULL, `typeId` INTEGER NOT NULL, PRIMARY KEY(`eventId`, `typeId`))",
        "fields": [
          {
            "fieldPath": "eventId",
            "columnName": "eventId",
            "affinity": "INTEGER",
            "notNull": true
          },
          {
            "fieldPath": "typeId",
            "columnName": "typeId",
            "affinity": "INTEGER",
            "notNull": true
          }
        ],
        "primaryKey": {
          "columnNames": [
            "eventId",
            "typeId"
          ],
          "autoGenerate": false
        },
        "indices": [],
        "foreignKeys": []
      }
    ],
    "views": [],
    "setupQueries": [
      "CREATE TABLE IF NOT EXISTS room_master_table (id INTEGER PRIMARY KEY,identity_hash TEXT)",
      "INSERT OR REPLACE INTO room_master_table (id,identity_hash) VALUES(42, '3483d0e4385e7995284c6c60852fccf5')"
    ]
  }
}